<svg xmlns="http://www.w3.org/2000/svg" viewBox="0 0 18 15">
  <path fill-rule="evenodd" fill="#FFF" d="M7.854,1.872 C8.261,1.473 8.261,0.844 7.854,0.444 C7.447,0.058 6.807,0.058 6.400,0.444 L0.305,6.428 C0.116,6.613 0.000,6.870 0.000,7.156 C0.000,7.441 0.116,7.698 0.305,7.885 L6.400,13.868 C6.807,14.267 7.447,14.267 7.854,13.868 C8.261,13.469 8.261,12.840 7.854,12.440 L3.491,8.170 L16.982,8.170 C17.549,8.171 18.000,7.713 18.000,7.157 C18.000,6.600 17.549,6.157 16.982,6.157 L3.491,6.157 L7.854,1.872 Z"/>
</svg>
